…
Spread is a measure of how far values in a distribution are from each other. We will use standard deviation as this measure.

\[Mean=\bar{x}=\dfrac{1}{n}\sum_{i=1}^n x_i\]

\[Standard Deviation=\sigma=\sqrt{\dfrac{1}{n}\sum_{i=1}^n (x_i-Mean)^2}\]

Calculating mean and standard deviation in R is simple. We can use the summarize function to do this. Here we are calculating the mean and standard deviation of the number of murders per year in each state.

data <- tidy_data %>%
  filter(type == 'total_murders') %>%
  group_by(state) %>%
  summarize(mean=mean(count), sd=sd(count))
print(data)

## # A tibble: 54 x 3
##    state                  mean     sd
##    <chr>                 <dbl>  <dbl>
##  1 Alabama               181.  165.  
##  2 Alaska                 36.1   9.97
##  3 Arizona               361.   68.3 
##  4 Arkansas              168.   22.0 
##  5 California           2035   286.  
##  6 Colorado              163.   22.6 
##  7 Connecticut           104.   21.0 
##  8 Delaware               45    12.9 
##  9 District of Columbia  127    22.5 
## 10 Georgia               561.   50.6 
## # ... with 44 more rows

Data transformation

To make interpretation of data easier, we can transform variables to a common unit-less scale. Right now we have average number of murders in each state per year. To making comparing these values easier, we can convert them to z-scores.

\[z_i=\dfrac{x_i-\bar{x}}{\sigma_x}\]

data <- data %>%
  mutate(z_score=(mean-mean(mean))/sd(mean))
print(data)

## # A tibble: 54 x 4
##    state                  mean     sd z_score
##    <chr>                 <dbl>  <dbl>   <dbl>
##  1 Alabama               181.  165.    -0.230
##  2 Alaska                 36.1   9.97  -0.647
##  3 Arizona               361.   68.3    0.288
##  4 Arkansas              168.   22.0   -0.269
##  5 California           2035   286.     5.10 
##  6 Colorado              163.   22.6   -0.282
##  7 Connecticut           104.   21.0   -0.453
##  8 Delaware               45    12.9   -0.621
##  9 District of Columbia  127    22.5   -0.385
## 10 Georgia               561.   50.6    0.864
## # ... with 44 more rows
…
